{
    "Ritchie": [
        {
            "Mathematics": 100,
            "Computer Science": 93
        }
    ],
    "Max": [
        {
            "Mathematics": 30,
            "Computer Science": 21
        }
    ],
    "Bety": [
        {
            "Mathematics": 7,
            "Computer Science": 23
        }
    ],
    "Carlos": [
        {
            "Mathematics": 82,
            "Computer Science": 73
        }
    ],
    "Blake": [
        {
            "Mathematics": 74,
            "Computer Science": 78
        }
    ],
    "Marci": [
        {
            "Mathematics": 83,
            "Computer Science": 29
        }
    ]
}
